{
  "users": [
    {
      "username": "Lars",
      "translations": [],
      "id": 2
    },
    {
      "username": "Larsern",
      "translations": [],
      "id": 3
    },
    {
      "username": "Lars Vidar",
      "translations": [],
      "id": 4
    },
    {
      "username": "Dewald",
      "translations": [
        "React is great",
        "Managing state wasnt",
        "Quite that easy",
        "Thats all"
      ],
      "id": 5
    }
  ]
}